<?xml version="1.0" encoding="UTF-8"?>
<svg width="16px" height="16px" viewBox="0 0 16 16" version="1.1" xmlns="http://www.w3.org/2000/svg" xmlns:xlink="http://www.w3.org/1999/xlink">
    <title>Artboard</title>
    <g id="Artboard" stroke="none" stroke-width="1" fill="none" fill-rule="evenodd">
        <g id="Group" transform="translate(4.000000, 2.129030)" fill="#000000">
            <circle id="Oval" cx="2" cy="3.87096958" r="2"></circle>
            <path d="M0.663970947,2.38630466 C2.87335897,0.416236846 5.7516126,-0.334005418 9.29873184,0.135577867 C11.3229952,0.403558777 6.43189007,-0.432521545 4.13326768,2.16158456 C3.24910347,3.15940646 3.6022981,4.55208439 3.24910347,4.74496982 C1.18028226,5.87478727 1.0000859,4.36620171 0.663970947,2.38630466 Z" id="Path"></path>
        </g>
        <g id="Group" transform="translate(12.539956, 5.939242) rotate(63.000000) translate(-12.539956, -5.939242) translate(10.003959, 3.993539)" fill="#000000">
            <circle id="Oval" cx="1" cy="2.8914067" r="1"></circle>
            <path d="M0.0846032408,2.47474563 C1.17505018,0.51488769 2.74507902,-0.280898143 4.79468975,0.0873881293 C5.96435777,0.297561049 3.13815969,-0.358162684 1.80996044,1.6763511 C1.29906911,2.45892603 1.87999075,3.3343674 1.67590641,3.4856442 C1.12809256,3.89170926 1.07775475,3.66252664 0.892601066,3.60282519 C0.673720753,3.53224883 0.367533434,3.14645919 0.0846032408,2.47474563 Z" id="Path"></path>
        </g>
        <g id="Group" transform="translate(4.538622, 8.939610) rotate(-102.000000) translate(-4.538622, -8.939610) translate(2.002626, 6.993157)" fill="#000000">
            <circle id="Oval" cx="1" cy="2.89290718" r="1"></circle>
            <path d="M0.117917162,2.41729596 C1.18615482,0.496738119 2.74507902,-0.279397664 4.79468975,0.0888886081 C5.96435777,0.299061528 3.13815969,-0.356662205 1.80996044,1.67785158 C1.29906911,2.46042651 1.87999075,3.33586788 1.67590641,3.48714468 C1.12809256,3.89320974 1.07775475,3.66402712 0.892601066,3.60432567 C0.673720753,3.53374931 0.445411045,3.26197701 0.117917162,2.41729596 Z" id="Path"></path>
        </g>
        <circle id="Oval-Copy" fill="#000000" cx="10" cy="10" r="2"></circle>
        <path d="M2.61343912,9.86981785 C4.62467893,8.49421013 7.40385846,8.04119791 10.9509777,8.51078119 C12.9752411,8.7787621 8.08413593,7.94268178 5.78551354,10.5367879 C4.90134933,11.5346098 5.24650791,12.7316842 4.89331328,12.9245697 C2.82449207,14.0543871 1.63376924,11.6906047 2.61343912,9.86981785 Z" id="Path" fill="#000000" transform="translate(6.848040, 10.775081) scale(-1, -1) translate(-6.848040, -10.775081) "></path>
        <path d="M1.58578644,4.41421356 L1.58578644,4.41421356 L1.58578644,4.41421356 C1.96739274,3.51001875 1.96739274,2.48998125 1.58578644,1.58578644 L1.58578644,1.58578644 L1.58578644,1.58578644 C2.48998125,1.96739274 3.51001875,1.96739274 4.41421356,1.58578644 L4.41421356,1.58578644 L4.41421356,1.58578644 C4.03260726,2.48998125 4.03260726,3.51001875 4.41421356,4.41421356 L4.41421356,4.41421356 L4.41421356,4.41421356 C3.51001875,4.03260726 2.48998125,4.03260726 1.58578644,4.41421356 Z" id="Star-Copy" fill="#000000" transform="translate(3.000000, 3.000000) rotate(-45.000000) translate(-3.000000, -3.000000) "></path>
        <circle id="Oval-Copy" fill="#000000" cx="12" cy="14" r="1"></circle>
    </g>
</svg>